Savev David 14057
…
Savev David 14057

Gender GAP STEM degrees

The purpose of this document, is to show the existing gender gap in the italian degrees being parts of the so called Science, Technology, Engineering and Mathematics group; the dataset was downloaded from the official Dati Ustat website: http://dati.ustat.miur.it/dataset/ 
 The selected dataset contains the number of gruadates in the time period 2012-2018 divided by degree type, level of instruction (Bachelor, Master), university and gender.

Data pre-processing

Since the dataset uses ; character as delimiter (the , is used as punctuation character), read_csv2 is the most suitable command in order to read in an appropriate way the file.

## # A tibble: 19,022 x 10
##     ANNO AteneoCOD AteneoNOME AteneoREGIONE AteneoAREAGEO CorsoTIPO COD_FoET2013
##    <dbl> <chr>     <chr>      <chr>         <chr>         <chr>     <chr>       
##  1  2018 00101     "Torino -~ Piemonte      NORD-OVEST    Laurea    01          
##  2  2018 00101     "Torino -~ Piemonte      NORD-OVEST    Laurea    01          
##  3  2018 00101     "Torino -~ Piemonte      NORD-OVEST    Laurea    02          
##  4  2018 00101     "Torino -~ Piemonte      NORD-OVEST    Laurea    02          
##  5  2018 00101     "Torino -~ Piemonte      NORD-OVEST    Laurea    03          
##  6  2018 00101     "Torino -~ Piemonte      NORD-OVEST    Laurea    03          
##  7  2018 00101     "Torino -~ Piemonte      NORD-OVEST    Laurea    04          
##  8  2018 00101     "Torino -~ Piemonte      NORD-OVEST    Laurea    04          
##  9  2018 00101     "Torino -~ Piemonte      NORD-OVEST    Laurea    05          
## 10  2018 00101     "Torino -~ Piemonte      NORD-OVEST    Laurea    05          
## # ... with 19,012 more rows, and 3 more variables: DESC_FoET2013 <chr>,
## #   Genere <chr>, LAU <dbl>

After a first pre-processing of the .csv file (renaming of entries and columns names with suitable names), dropping off unesuful columns and deleting rows containing NA entries, the dataframe results in a tidy version, in the following way:

## # A tibble: 17,016 x 8
##     Year University     Region  GeoArea EducationLevel Degree      Gender Number
##    <dbl> <chr>          <chr>   <chr>   <chr>          <chr>       <chr>   <dbl>
##  1  2018 "Torino - Uni~ Piemon~ North-~ Bachelor       Education   F         293
##  2  2018 "Torino - Uni~ Piemon~ North-~ Bachelor       Education   M          24
##  3  2018 "Torino - Uni~ Piemon~ North-~ Bachelor       Arts and h~ F         833
##  4  2018 "Torino - Uni~ Piemon~ North-~ Bachelor       Arts and h~ M         306
##  5  2018 "Torino - Uni~ Piemon~ North-~ Bachelor       Social sci~ F        1034
##  6  2018 "Torino - Uni~ Piemon~ North-~ Bachelor       Social sci~ M         711
##  7  2018 "Torino - Uni~ Piemon~ North-~ Bachelor       Business, ~ F         654
##  8  2018 "Torino - Uni~ Piemon~ North-~ Bachelor       Business, ~ M         684
##  9  2018 "Torino - Uni~ Piemon~ North-~ Bachelor       Natural sc~ F         422
## 10  2018 "Torino - Uni~ Piemon~ North-~ Bachelor       Natural sc~ M         304
## # ... with 17,006 more rows
…
